[
  {
    "keyword": "Feature",
    "name": "[FT- 009] Pesquisar apresentação",
    "line": 1,
    "id": "[ft--009]-pesquisar-apresentação",
    "tags": [],
    "uri": "TestePesquisaApresentacao.feature",
    "elements": [
      {
        "id": "[ft--009]-pesquisar-apresentação;cen-01:-gerente-pesquisa-apresentacao-por-codigo-e-visualiza",
        "keyword": "Scenario",
        "line": 3,
        "name": "CEN-01: Gerente pesquisa apresentacao por codigo e visualiza",
        "tags": [],
        "type": "scenario",
        "steps": [
          {
            "arguments": [],
            "keyword": "Given ",
            "line": 4,
            "name": "Sou um gerente e estou na página de apresentacoes",
            "result": {
              "status": "passed",
              "duration": 2800000000
            }
          },
          {
            "arguments": [],
            "keyword": "When ",
            "line": 5,
            "name": "Eu insiro o codigo no campo pesquisar e solicito",
            "result": {
              "status": "passed",
              "duration": 511000000
            }
          },
          {
            "arguments": [],
            "keyword": "Then ",
            "line": 6,
            "name": "O codigo deve ser checado",
            "result": {
              "status": "passed",
              "duration": 1779000000
            }
          }
        ]
      }
    ]
  }
]