[
  {
    "keyword": "Feature",
    "name": "[FT- 002] Visualizar artefatos dos projetos",
    "line": 1,
    "id": "[ft--002]-visualizar-artefatos-dos-projetos",
    "tags": [],
    "uri": "TesteVisualizarArtefatos.feature",
    "elements": [
      {
        "id": "[ft--002]-visualizar-artefatos-dos-projetos;cen-01:-visualizar-o-artefato-vídeo-de-um-projeto",
        "keyword": "Scenario",
        "line": 3,
        "name": "CEN-01: Visualizar o artefato vídeo de um projeto",
        "tags": [],
        "type": "scenario",
        "steps": [
          {
            "arguments": [],
            "keyword": "Given ",
            "line": 4,
            "name": "que eu estou na tela de projetos",
            "result": {
              "status": "passed",
              "duration": 8307000000
            }
          },
          {
            "arguments": [],
            "keyword": "And ",
            "line": 5,
            "name": "estou alocado a uma apresentação do tipo vídeo",
            "result": {
              "status": "passed",
              "duration": 46000000
            }
          },
          {
            "arguments": [],
            "keyword": "When ",
            "line": 6,
            "name": "eu clico em + de uma apresentação",
            "result": {
              "status": "passed",
              "duration": 3143000000
            }
          },
          {
            "arguments": [],
            "keyword": "And ",
            "line": 7,
            "name": "clico no botão Assistir ao Vídeo",
            "result": {
              "status": "passed",
              "duration": 6055000000
            }
          },
          {
            "arguments": [],
            "keyword": "Then ",
            "line": 8,
            "name": "devo ser direcionado para a página de visualizar o vídeo",
            "result": {
              "status": "passed",
              "duration": 46000000
            }
          }
        ]
      },
      {
        "id": "[ft--002]-visualizar-artefatos-dos-projetos;cen-02:-participar-da-conferência-de-uma-e-tertúlia",
        "keyword": "Scenario",
        "line": 11,
        "name": "CEN-02: Participar da conferência de uma e-tertúlia",
        "tags": [],
        "type": "scenario",
        "steps": [
          {
            "arguments": [],
            "keyword": "Given ",
            "line": 12,
            "name": "que eu estou na tela de projetos",
            "result": {
              "status": "passed",
              "duration": 10773000000
            }
          },
          {
            "arguments": [],
            "keyword": "And ",
            "line": 13,
            "name": "estou alocado a uma apresentação do tipo vídeo",
            "result": {
              "status": "passed",
              "duration": 36000000
            }
          },
          {
            "arguments": [],
            "keyword": "When ",
            "line": 14,
            "name": "eu clico em + de uma apresentação tipo tertúlia",
            "result": {
              "status": "passed",
              "duration": 2731000000
            }
          },
          {
            "arguments": [],
            "keyword": "And ",
            "line": 15,
            "name": "clico no botão Clique aqui para participar da conferência",
            "result": {
              "status": "passed",
              "duration": 500000000
            }
          },
          {
            "arguments": [],
            "keyword": "Then ",
            "line": 16,
            "name": "devo ser direcionado para a página do google meets",
            "result": {
              "status": "passed",
              "duration": 52000000
            }
          }
        ]
      }
    ]
  }
]