[
  {
    "keyword": "Feature",
    "name": "FT[012] Pesquisar Pessoa",
    "line": 1,
    "id": "ft[012]-pesquisar-pessoa",
    "tags": [],
    "uri": "TestePesquisaPessoa.feature",
    "elements": [
      {
        "id": "ft[012]-pesquisar-pessoa;cen-01:-gerente-pesquisa-usuário-por-número-de-matrícula",
        "keyword": "Scenario",
        "line": 3,
        "name": "CEN-01: Gerente pesquisa usuário por número de matrícula",
        "tags": [],
        "type": "scenario",
        "steps": [
          {
            "arguments": [],
            "keyword": "Given ",
            "line": 4,
            "name": "Sou um gerente e estou na página de pessoas",
            "result": {
              "status": "passed",
              "duration": 2791000000
            }
          },
          {
            "arguments": [],
            "keyword": "When ",
            "line": 5,
            "name": "Eu insiro o número de matrícula no campo pesquisar e solicito",
            "result": {
              "status": "passed",
              "duration": 599000000
            }
          },
          {
            "arguments": [],
            "keyword": "Then ",
            "line": 6,
            "name": "A matricula do usuario pesquisado deve aparecer na tabela",
            "result": {
              "status": "passed",
              "duration": 39000000
            }
          }
        ]
      },
      {
        "id": "ft[012]-pesquisar-pessoa;cen-02:-gerente-pesquisa-usuário-por-número-de-telefone",
        "keyword": "Scenario",
        "line": 8,
        "name": "CEN-02: Gerente pesquisa usuário por número de telefone",
        "tags": [],
        "type": "scenario",
        "steps": [
          {
            "arguments": [],
            "keyword": "Given ",
            "line": 9,
            "name": "Sou um gerente e estou na página de pessoas",
            "result": {
              "status": "passed",
              "duration": 663000000
            }
          },
          {
            "arguments": [],
            "keyword": "When ",
            "line": 10,
            "name": "Eu insiro o número de telefone no campo pesquisar e solicito",
            "result": {
              "status": "passed",
              "duration": 445000000
            }
          },
          {
            "arguments": [],
            "keyword": "Then ",
            "line": 11,
            "name": "O telefone do usuario pesquisado deve aparecer na tabela",
            "result": {
              "status": "passed",
              "duration": 20000000
            }
          }
        ]
      },
      {
        "id": "ft[012]-pesquisar-pessoa;cen-03:-gerente-pesquisa-usuário-por-email",
        "keyword": "Scenario",
        "line": 13,
        "name": "CEN-03: Gerente pesquisa usuário por email",
        "tags": [],
        "type": "scenario",
        "steps": [
          {
            "arguments": [],
            "keyword": "Given ",
            "line": 14,
            "name": "Sou um gerente e estou na página de pessoas",
            "result": {
              "status": "passed",
              "duration": 534000000
            }
          },
          {
            "arguments": [],
            "keyword": "When ",
            "line": 15,
            "name": "Eu insiro o email no campo pesquisar e solicito",
            "result": {
              "status": "passed",
              "duration": 671000000
            }
          },
          {
            "arguments": [],
            "keyword": "Then ",
            "line": 16,
            "name": "O email do usuario pesquisado deve aparecer na tabela",
            "result": {
              "status": "passed",
              "duration": 22000000
            }
          }
        ]
      },
      {
        "id": "ft[012]-pesquisar-pessoa;cen-04:-gerente-pesquisa-usuário-por-nome",
        "keyword": "Scenario",
        "line": 18,
        "name": "CEN-04: Gerente pesquisa usuário por nome",
        "tags": [],
        "type": "scenario",
        "steps": [
          {
            "arguments": [],
            "keyword": "Given ",
            "line": 19,
            "name": "Sou um gerente e estou na página de pessoas",
            "result": {
              "status": "passed",
              "duration": 541000000
            }
          },
          {
            "arguments": [],
            "keyword": "When ",
            "line": 20,
            "name": "Eu insiro o nome no campo pesquisar e solicito",
            "result": {
              "status": "passed",
              "duration": 509000000
            }
          },
          {
            "arguments": [],
            "keyword": "Then ",
            "line": 21,
            "name": "O nome do usuario pesquisado deve aparecer na tabela",
            "result": {
              "status": "passed",
              "duration": 32000000
            }
          }
        ]
      }
    ]
  }
]