[
  {
    "description": "    Um gerente pode mudar a atribuição de uma pessoa no sistema",
    "keyword": "Feature",
    "name": "FT[014] Mudar atribuiçao da pessoa",
    "line": 1,
    "id": "ft[014]-mudar-atribuiçao-da-pessoa",
    "tags": [],
    "uri": "TesteAtribuicao.feature",
    "elements": [
      {
        "id": "ft[014]-mudar-atribuiçao-da-pessoa;cen-01:-gerente-muda-atribuição-com-sucesso",
        "keyword": "Scenario",
        "line": 6,
        "name": "CEN-01: Gerente muda Atribuição com Sucesso",
        "tags": [],
        "type": "scenario",
        "steps": [
          {
            "arguments": [],
            "keyword": "Given ",
            "line": 7,
            "name": "Sou um gerente e estou na página de pessoas",
            "result": {
              "status": "passed",
              "duration": 6394000000
            }
          },
          {
            "arguments": [],
            "keyword": "When ",
            "line": 8,
            "name": "Eu insiro o número de matrícula no campo pesquisar e solicito",
            "result": {
              "status": "passed",
              "duration": 590000000
            }
          },
          {
            "arguments": [],
            "keyword": "And ",
            "line": 9,
            "name": "o usuário pesquisado aparecer na tabela",
            "result": {
              "status": "passed",
              "duration": 1700000000
            }
          },
          {
            "arguments": [],
            "keyword": "And ",
            "line": 10,
            "name": "clico em editar",
            "result": {
              "status": "passed",
              "duration": 364000000
            }
          },
          {
            "arguments": [],
            "keyword": "And ",
            "line": 11,
            "name": "marco a opção de Administrador e clico em Salvar",
            "result": {
              "status": "passed",
              "duration": 198000000
            }
          },
          {
            "arguments": [],
            "keyword": "Then ",
            "line": 12,
            "name": "o usuário deve ser atualizado com sucesso",
            "result": {
              "status": "passed",
              "duration": 1494000000
            }
          }
        ]
      },
      {
        "id": "ft[014]-mudar-atribuiçao-da-pessoa;cen-02:-gerente-realiza-mudança-de-atribuição-não-permitida",
        "keyword": "Scenario",
        "line": 14,
        "name": "CEN-02: Gerente realiza mudança de atribuição não permitida",
        "tags": [],
        "type": "scenario",
        "steps": [
          {
            "arguments": [],
            "keyword": "Given ",
            "line": 15,
            "name": "Sou um gerente e estou na página de pessoas",
            "result": {
              "status": "passed",
              "duration": 1093000000
            }
          },
          {
            "arguments": [],
            "keyword": "When ",
            "line": 16,
            "name": "Eu insiro o número de matrícula no campo pesquisar e solicito",
            "result": {
              "status": "passed",
              "duration": 568000000
            }
          },
          {
            "arguments": [],
            "keyword": "And ",
            "line": 17,
            "name": "o usuário pesquisado aparecer na tabela",
            "result": {
              "status": "passed",
              "duration": 33000000
            }
          },
          {
            "arguments": [],
            "keyword": "And ",
            "line": 18,
            "name": "clico em editar",
            "result": {
              "status": "passed",
              "duration": 192000000
            }
          },
          {
            "arguments": [],
            "keyword": "And ",
            "line": 19,
            "name": "marco a opção de Monitor e clico em Salvar",
            "result": {
              "status": "passed",
              "duration": 248000000
            }
          },
          {
            "arguments": [],
            "keyword": "Then ",
            "line": 20,
            "name": "sistema deve informar que um usuário não pode ser monitor e gerente simultaneamente",
            "result": {
              "status": "passed",
              "duration": 34000000
            }
          }
        ]
      }
    ]
  }
]