[
  {
    "funcao": "COORDENADOR(A)",
    "idProjeto": 851,
    "tituloProjeto": "Disseminando a Extensão no Centro de Informática da UFPB"
  },
  {
    "funcao": "COLABORADOR(A)",
    "idProjeto": 838,
    "tituloProjeto": "Gamificação Aplicada a Educação através do Desenvolvimento de Jogos Digitais"
  },
  {
    "funcao": "COORDENADOR(A)",
    "idProjeto": 2079,
    "tituloProjeto": "Monitoria para Apoio ao Ensino de Componentes de Programação do Curso de Licenciatura em Computação a Distância"
  },
  {
    "funcao": "COLABORADOR(A)",
    "idProjeto": 539,
    "tituloProjeto": "Preparatório para Olimpíadas Brasileiras de Informática \r\n"
  },
  {
    "funcao": "COORDENADOR(A)",
    "idProjeto": 2079,
    "tituloProjeto": "Monitoria para Apoio ao Ensino de Componentes de Programação do Curso de Licenciatura em Computação a Distância"
  },
  {
    "funcao": "COORDENADOR(A)",
    "idProjeto": 2079,
    "tituloProjeto": "Monitoria para Apoio ao Ensino de Componentes de Programação do Curso de Licenciatura em Computação a Distância"
  },
  {
    "funcao": "COORDENADOR(A)",
    "idProjeto": 2853,
    "tituloProjeto": "Laboratório de Desenvolvimento de Sistemas: Levando Soluções Computacionais para Problemas da Comunidade Interna e Circunvizinha"
  },
  {
    "funcao": "COLABORADOR(A)",
    "idProjeto": 4699,
    "tituloProjeto": "JOGO DIGITAL EDUCACIONAL SOBRE AS ATIVIDADES COTIDIANAS DE CRIANÇAS COM TRANSTORNO DO DESENVOLVIMENTO"
  },
  {
    "funcao": "COORDENADOR(A)",
    "idProjeto": 2676,
    "tituloProjeto": "Assessoria de Extensão do Centro de Informática"
  },
  {
    "funcao": "COLABORADOR(A)",
    "idProjeto": 2294,
    "tituloProjeto": "Curso Preparatório para Olimpíadas Brasileiras de Informática"
  },
  {
    "funcao": "COLABORADOR(A)",
    "idProjeto": 1136,
    "tituloProjeto": "Ensino de Programação a Distância para alunos do Ensino Fundamental e Médio preparatório para a Olimpíada Brasileira de Informática"
  },
  {
    "funcao": "COORDENADOR(A)",
    "idProjeto": 5056,
    "tituloProjeto": "Experimental Games Group UFPB (EGG)"
  },
  {
    "funcao": "COLABORADOR(A)",
    "idProjeto": 3746,
    "tituloProjeto": "Sistema Reconfigurável de Alta Precisão para Otimização da Produção de Combustíveis Líquidos e de Óleos Vegetais e Minerais"
  },
  {
    "funcao": "COLABORADOR(A)",
    "idProjeto": 5054,
    "tituloProjeto": "iCityJPA 2018: Desafios e soluções para uma cidade inteligente"
  },
  {
    "funcao": "COORDENADOR(A)",
    "idProjeto": 9912589,
    "tituloProjeto": "ESTUDO COMPARATIVO DE ALGORITMOS DE NEGOCIAÇÃO PARA ARQUIVOS MULTIMÍDIA"
  },
  {
    "funcao": "COORDENADOR(A)",
    "idProjeto": 9915722,
    "tituloProjeto": "JOGOS DIGITAIS COMO FERRAMENTA DE APOIO AO ENSINO DE INTRODUÇÃO A PROGRAMAÇÃO"
  },
  {
    "funcao": "COORDENADOR(A)",
    "idProjeto": 9917574,
    "tituloProjeto": "PROCESSOS E FERRAMENTAS PARA GAMIFICAR EM AMBIENTES VIRTUAIS DE ENSINO"
  },
  {
    "funcao": "COORDENADOR(A)",
    "idProjeto": 9918053,
    "tituloProjeto": "UMA ANÁLISE DO USO DE ACELERÔMETROS EM UMA  REDE DE SENSORES SEM FIOS PARA MONITORAMENTO DE TRENS"
  }
]