{
  "cli": {
    "version": ">= 5.1.0"
  },
  "build": {
    "preview": {
      "distribution": "internal"
    },
    "devel": {
      "extends": "preview",
      "channel": "devel",
      "distribution": "internal",
      "env": {
        "APP_VARIANT": "devel"
      },
      "android": {
        "buildType": "apk"
      }
    },
    "staging": {
      "extends": "preview",
      "channel": "staging",
      "env": {
        "APP_VARIANT": "staging"
      },
      "android": {
        "buildType": "apk"
      }
    },
    "production": {
      "channel": "production",
      "env": {
        "APP_VARIANT": "production"
      }
    }
  },
  "submit": {
    "production": {}
  }
}
