{
  "stats": {
    "suites": 1,
    "tests": 4,
    "passes": 4,
    "pending": 0,
    "failures": 0,
    "start": "2020-09-15T00:44:25.230Z",
    "end": "2020-09-15T00:44:56.166Z",
    "duration": 30936,
    "testsRegistered": 4,
    "passPercent": 100,
    "pendingPercent": 0,
    "other": 0,
    "hasOther": false,
    "skipped": 0,
    "hasSkipped": false
  },
  "results": [
    {
      "uuid": "21084a9e-0338-4b89-805d-dae518322d0f",
      "title": "",
      "fullFile": "cypress/integration/TesteFiltrarProjeto.feature",
      "file": "cypress/integration/TesteFiltrarProjeto.feature",
      "beforeHooks": [],
      "afterHooks": [],
      "tests": [],
      "suites": [
        {
          "uuid": "542ffa50-c106-4a1c-aeeb-a7b6d56a80c7",
          "title": "[FT-006] Filtrar Projeto",
          "fullFile": "",
          "file": "",
          "beforeHooks": [],
          "afterHooks": [],
          "tests": [
            {
              "title": "CEN-01: Filtrar projeto área temática",
              "fullTitle": "[FT-006] Filtrar Projeto CEN-01: Filtrar projeto área temática",
              "timedOut": null,
              "duration": 9739,
              "state": "passed",
              "speed": "slow",
              "pass": true,
              "fail": false,
              "pending": false,
              "context": null,
              "code": "const state = window.testState;\nreturn cy\n  .then(() => state.onStartScenario(scenario, indexedSteps))\n  .then(() =>\n    resolveAndRunBeforeHooks.call(this, scenario.tags, state.feature.name)\n  )\n  .then(() =>\n    indexedSteps.forEach(step =>\n      stepTest.call(this, state, step, rowData)\n    )\n  )\n  .then(() =>\n    resolveAndRunAfterHooks.call(this, scenario.tags, state.feature.name)\n  )\n  .then(() => state.onFinishScenario(scenario));",
              "err": {},
              "uuid": "5aae0336-a6a8-470c-824b-040bcf24bcbf",
              "parentUUID": "542ffa50-c106-4a1c-aeeb-a7b6d56a80c7",
              "isHook": false,
              "skipped": false
            },
            {
              "title": "CEN-02: Filtrar projeto por modalidade",
              "fullTitle": "[FT-006] Filtrar Projeto CEN-02: Filtrar projeto por modalidade",
              "timedOut": null,
              "duration": 7221,
              "state": "passed",
              "speed": "slow",
              "pass": true,
              "fail": false,
              "pending": false,
              "context": null,
              "code": "const state = window.testState;\nreturn cy\n  .then(() => state.onStartScenario(scenario, indexedSteps))\n  .then(() =>\n    resolveAndRunBeforeHooks.call(this, scenario.tags, state.feature.name)\n  )\n  .then(() =>\n    indexedSteps.forEach(step =>\n      stepTest.call(this, state, step, rowData)\n    )\n  )\n  .then(() =>\n    resolveAndRunAfterHooks.call(this, scenario.tags, state.feature.name)\n  )\n  .then(() => state.onFinishScenario(scenario));",
              "err": {},
              "uuid": "cffca76a-3791-4df8-9b10-55dec5541413",
              "parentUUID": "542ffa50-c106-4a1c-aeeb-a7b6d56a80c7",
              "isHook": false,
              "skipped": false
            },
            {
              "title": "CEN-03: Filtrar projeto por alocação",
              "fullTitle": "[FT-006] Filtrar Projeto CEN-03: Filtrar projeto por alocação",
              "timedOut": null,
              "duration": 6882,
              "state": "passed",
              "speed": "slow",
              "pass": true,
              "fail": false,
              "pending": false,
              "context": null,
              "code": "const state = window.testState;\nreturn cy\n  .then(() => state.onStartScenario(scenario, indexedSteps))\n  .then(() =>\n    resolveAndRunBeforeHooks.call(this, scenario.tags, state.feature.name)\n  )\n  .then(() =>\n    indexedSteps.forEach(step =>\n      stepTest.call(this, state, step, rowData)\n    )\n  )\n  .then(() =>\n    resolveAndRunAfterHooks.call(this, scenario.tags, state.feature.name)\n  )\n  .then(() => state.onFinishScenario(scenario));",
              "err": {},
              "uuid": "cfcb8c35-7ead-4da8-a5d5-ea689b8d7798",
              "parentUUID": "542ffa50-c106-4a1c-aeeb-a7b6d56a80c7",
              "isHook": false,
              "skipped": false
            },
            {
              "title": "CEN-04: Filtrar projeto por status",
              "fullTitle": "[FT-006] Filtrar Projeto CEN-04: Filtrar projeto por status",
              "timedOut": null,
              "duration": 6933,
              "state": "passed",
              "speed": "slow",
              "pass": true,
              "fail": false,
              "pending": false,
              "context": null,
              "code": "const state = window.testState;\nreturn cy\n  .then(() => state.onStartScenario(scenario, indexedSteps))\n  .then(() =>\n    resolveAndRunBeforeHooks.call(this, scenario.tags, state.feature.name)\n  )\n  .then(() =>\n    indexedSteps.forEach(step =>\n      stepTest.call(this, state, step, rowData)\n    )\n  )\n  .then(() =>\n    resolveAndRunAfterHooks.call(this, scenario.tags, state.feature.name)\n  )\n  .then(() => state.onFinishScenario(scenario));",
              "err": {},
              "uuid": "e09f0f71-50e6-42c8-8c17-47f1b47186d8",
              "parentUUID": "542ffa50-c106-4a1c-aeeb-a7b6d56a80c7",
              "isHook": false,
              "skipped": false
            }
          ],
          "suites": [],
          "passes": [
            "5aae0336-a6a8-470c-824b-040bcf24bcbf",
            "cffca76a-3791-4df8-9b10-55dec5541413",
            "cfcb8c35-7ead-4da8-a5d5-ea689b8d7798",
            "e09f0f71-50e6-42c8-8c17-47f1b47186d8"
          ],
          "failures": [],
          "pending": [],
          "skipped": [],
          "duration": 30775,
          "root": false,
          "rootEmpty": false,
          "_timeout": 2000
        }
      ],
      "passes": [],
      "failures": [],
      "pending": [],
      "skipped": [],
      "duration": 0,
      "root": true,
      "rootEmpty": true,
      "_timeout": 2000
    }
  ],
  "meta": {
    "mocha": {
      "version": "7.0.1"
    },
    "mochawesome": {
      "options": {
        "quiet": true,
        "reportFilename": "mochawesome",
        "saveHtml": false,
        "saveJson": true,
        "consoleReporter": "spec",
        "useInlineDiffs": false,
        "code": true
      },
      "version": "6.1.1"
    },
    "marge": {
      "options": {
        "id": "default",
        "reportDir": "mochawesome-report",
        "quiet": true,
        "overwrite": false,
        "html": false,
        "json": true
      },
      "version": "5.1.0"
    }
  }
}