<svg xmlns="http://www.w3.org/2000/svg" width="19.052" height="19.052" viewBox="0 0 19.052 19.052">
  <g id="noun_Business_Meeting_1150621_1_" data-name="noun_Business Meeting_1150621 (1)" transform="translate(-5 -5)">
    <path id="Caminho_11" data-name="Caminho 11" d="M30.178,23.279a.51.51,0,0,1,.317.336.5.5,0,0,1,.013.227l.82-.4a1.068,1.068,0,0,1,.469-.109h.233a.85.85,0,0,0,.85-.85v-.69a.849.849,0,0,0-.848-.848H30.465a.849.849,0,0,0-.848.848v.69A.85.85,0,0,0,30.178,23.279Zm2.049-1.491a.373.373,0,1,1-.373.373A.373.373,0,0,1,32.227,21.788Zm-.978,0a.373.373,0,1,1-.373.373A.373.373,0,0,1,31.248,21.788Zm-.978,0a.373.373,0,1,1-.373.373A.373.373,0,0,1,30.27,21.788Z" transform="translate(-19.406 -12.566)" fill="#443dd0"/>
    <path id="Caminho_12" data-name="Caminho 12" d="M53.876,32.12h.2a.965.965,0,0,1,.423.1l.636.313a.476.476,0,0,1,.019-.133.484.484,0,0,1,.3-.319h0a.688.688,0,0,0,.453-.647v-.594a.686.686,0,0,0-.686-.686H53.874a.686.686,0,0,0-.686.686v.594A.689.689,0,0,0,53.876,32.12Zm1.515-1.3a.336.336,0,1,1-.336.336A.336.336,0,0,1,55.391,30.823Zm-.842,0a.336.336,0,1,1-.336.336A.336.336,0,0,1,54.549,30.823Zm-.842,0a.336.336,0,1,1-.336.336A.336.336,0,0,1,53.707,30.823Z" transform="translate(-37.987 -19.828)" fill="#443dd0"/>
    <path id="Caminho_13" data-name="Caminho 13" d="M20.343,43.424a1.01,1.01,0,1,0-1.01-1.01A1.011,1.011,0,0,0,20.343,43.424Z" transform="translate(-11.299 -28.698)" fill="#443dd0"/>
    <path id="Caminho_14" data-name="Caminho 14" d="M72.137,43.424a1.01,1.01,0,1,0-1.01-1.01A1.011,1.011,0,0,0,72.137,43.424Z" transform="translate(-52.129 -28.698)" fill="#443dd0"/>
    <path id="Caminho_15" data-name="Caminho 15" d="M14.526,24.052A9.526,9.526,0,1,0,5,14.526,9.526,9.526,0,0,0,14.526,24.052Zm7.727-7.167v.839a.318.318,0,1,1-.635,0v-.839a.7.7,0,0,0-.7-.7H19.1a.7.7,0,0,0-.7.7.318.318,0,1,1-.635,0A1.336,1.336,0,0,1,19.1,15.551h1.819A1.336,1.336,0,0,1,22.253,16.886Zm-2.245-4.814a1.645,1.645,0,1,1-1.645,1.645A1.647,1.647,0,0,1,20.008,12.072ZM14.566,11.01A1.322,1.322,0,0,1,15.887,9.69h1.349a1.322,1.322,0,0,1,1.321,1.321V11.6a1.326,1.326,0,0,1-.686,1.16l.081.1a.443.443,0,0,1-.35.714.446.446,0,0,1-.2-.046l-1.173-.577a.326.326,0,0,0-.143-.033h-.2A1.324,1.324,0,0,1,14.567,11.6V11.01Zm2.349,6.182a.318.318,0,0,1,.315.276l.293,2.216a.318.318,0,0,1-.273.356l-.042,0a.318.318,0,0,1-.314-.276l-.257-1.94H12.415l-.257,1.94a.318.318,0,1,1-.63-.083l.293-2.216a.317.317,0,0,1,.315-.276h4.779Zm-7.34-7.97a1.485,1.485,0,0,1,1.483-1.483h1.567a1.485,1.485,0,0,1,1.483,1.483v.69A1.486,1.486,0,0,1,12.624,11.4h-.233a.431.431,0,0,0-.189.044l-1.363.67a.463.463,0,0,1-.571-.7l.131-.17a1.489,1.489,0,0,1-.824-1.33v-.69Zm-.532,2.849A1.645,1.645,0,1,1,7.4,13.716,1.647,1.647,0,0,1,9.044,12.072ZM7.434,16.886v.839a.318.318,0,1,1-.635,0v-.839a1.336,1.336,0,0,1,1.335-1.335H9.954a1.336,1.336,0,0,1,1.335,1.335.318.318,0,0,1-.635,0,.7.7,0,0,0-.7-.7H8.134A.7.7,0,0,0,7.434,16.886Z" fill="#443dd0"/>
  </g>
</svg>
