idPergunta,idProjeto,idPessoa,idPessoaVinculo,dataAvaliacao,notaAvaliacao
7,2356,1,3121,2017-12-09 19:51:31,9.3
7,2357,10,2129,2018-06-13 08:06:03,4.79
8,2359,100,2469,2018-04-12 22:07:48,2.34
2,2360,1000,2804,2018-09-12 02:20:19,5.52
5,2361,101,2696,2017-10-09 19:29:19,5.93
7,2362,102,2553,2018-08-22 05:11:02,7.54
8,2363,103,2692,2018-08-02 22:17:19,6.27
7,2364,104,2996,2017-12-23 23:43:46,5.39
5,2366,105,1426,2018-09-06 17:20:31,3.55
8,2367,106,2690,2018-01-20 04:16:05,1.09
8,2368,107,2995,2018-06-02 20:49:26,2.17
3,2369,108,3118,2018-05-29 19:22:54,4.46
8,2370,109,3154,2018-09-06 23:59:31,4.34
8,2371,11,2423,2018-08-24 08:51:58,4.69
8,2373,110,1858,2018-03-01 14:55:15,3.4
8,2374,111,1387,2018-07-20 14:18:36,2.06
7,2377,112,1897,2018-07-23 00:30:03,3.54
7,2378,113,1425,2018-08-31 12:37:55,9.05
8,2379,114,1853,2017-12-15 02:40:03,8.53
4,2380,115,2308,2018-08-02 12:59:45,1.75
6,2382,116,2888,2018-02-21 13:44:33,7.01
8,2383,117,2977,2018-09-10 11:25:28,6.18
7,2385,118,2958,2018-02-11 17:48:53,0.67
8,2386,119,2802,2018-05-11 07:31:38,0.63
6,2387,12,2770,2017-12-09 23:41:20,4.48
8,2388,120,3284,2017-11-05 17:59:41,0.59
8,2389,121,3160,2017-11-03 07:15:18,6.88
8,2390,122,2242,2017-10-24 02:33:36,1.88
7,2391,123,2128,2018-03-02 16:48:28,6.79
8,2393,124,2135,2018-04-11 05:17:02,2.06
8,2394,125,2684,2018-03-25 04:54:01,6.46
5,2395,126,1956,2018-08-26 09:30:21,8.66
8,2397,127,2677,2018-02-14 07:52:01,8.6
8,2398,128,1271,2017-10-13 08:34:54,7.49
7,2399,129,2259,2017-10-27 12:45:33,8.45
7,2400,13,2454,2018-09-18 17:38:11,6.62
8,2401,130,1806,2018-09-13 12:17:20,7.04
4,2402,131,2605,2017-09-30 14:16:54,5.3
4,2403,132,2565,2018-04-29 13:04:44,5.06
8,2405,133,3150,2018-08-11 04:34:22,5.23
8,2406,134,3312,2017-11-26 07:08:23,2.46
8,2407,135,2612,2018-08-19 13:37:28,1.67
6,2408,136,2402,2018-06-20 22:45:48,2.35
8,2410,137,2709,2017-12-20 05:33:31,8.93
5,2411,138,2338,2018-04-06 21:46:55,0.19
8,2412,139,2579,2018-03-06 23:00:46,6.39
8,2413,14,2779,2018-02-12 18:12:21,0.57
8,2414,140,2871,2018-06-14 15:09:00,0.83
8,2416,141,3207,2018-02-18 11:44:42,3.44
8,2417,142,1575,2018-02-12 23:30:13,7.46
5,2418,143,2455,2017-10-22 14:23:01,4.25
8,2419,144,2818,2018-07-26 08:36:21,2.97
5,2420,145,3114,2018-05-16 04:44:57,1.88
8,2421,146,2450,2017-09-30 04:18:19,2.65
5,2422,147,2808,2018-07-25 18:46:37,3.59
8,2425,148,1369,2017-12-18 17:27:58,9.9
8,2426,149,3132,2018-05-13 14:34:35,4.42
8,2427,15,3244,2018-05-26 00:07:36,9.95
7,2428,150,1972,2018-06-06 19:52:24,2.29
7,2429,151,1385,2017-11-18 07:13:02,5.73
7,2430,152,2957,2018-08-12 08:58:56,2.49
4,2431,153,2852,2017-10-08 07:27:43,3.15
8,2432,154,1261,2018-01-25 19:53:06,9.41
8,2433,155,2600,2018-08-02 00:41:39,3.55
8,2434,156,1971,2018-04-04 09:46:11,4.74
8,2435,157,2739,2017-09-25 02:31:17,3.56
8,2436,158,2975,2018-02-22 04:31:36,9.34
8,2437,159,2499,2017-10-19 13:38:47,0.52
8,2439,16,1333,2018-03-14 21:54:02,5.99
6,2440,160,1892,2018-06-13 07:21:07,1.15
8,2441,161,3304,2018-04-09 23:32:23,2.47
8,2442,162,3243,2017-10-07 18:37:50,7.93
6,2443,163,2285,2018-05-28 11:01:06,1.74
8,2444,164,2560,2017-11-20 07:59:01,9.54
8,2445,165,1274,2017-10-28 16:53:03,4.72
8,2446,166,3306,2018-02-02 22:16:36,1.6
8,2447,167,1941,2018-06-24 15:49:10,0.57
4,2448,168,1408,2018-07-11 13:44:05,7.88
8,2449,169,2644,2017-11-18 11:58:03,8.9
7,2450,17,3163,2018-03-06 06:20:19,5.57
7,2451,170,2334,2018-07-11 11:03:00,8.52
7,2452,171,2232,2018-05-26 22:53:34,5.62
6,2453,172,2365,2017-10-10 23:42:01,6.26
7,2454,173,2912,2018-07-13 13:36:09,1.36
8,2455,174,2425,2018-05-19 07:14:41,5.27
8,2456,175,1269,2018-05-04 06:31:46,0.71
8,2457,176,3048,2018-07-14 10:55:44,9.44
7,2458,177,3177,2018-07-19 13:29:50,9.36
8,2459,178,3282,2018-05-30 03:45:59,8.44
8,2460,179,2979,2018-08-12 06:46:33,2.88
7,2461,18,3047,2017-11-25 20:23:31,2.49
7,2463,180,2690,2018-07-30 07:03:36,5.12
8,2464,181,3087,2017-12-29 23:40:44,1.38
7,2465,182,2334,2017-11-15 10:04:07,0.78
6,2466,183,3246,2018-07-28 04:01:31,8.89
7,2468,184,1273,2018-05-29 08:14:21,7.24
8,2470,185,3025,2018-07-31 16:22:27,7.09
7,2471,186,2618,2018-07-18 05:43:56,2.36
8,2472,187,2993,2018-07-09 09:40:44,5.86
8,2473,188,2176,2018-04-27 12:17:42,9.63
7,2474,189,3230,2018-01-08 07:12:48,7.76
3,2477,19,2310,2018-07-25 16:06:38,6.29
8,2479,190,1590,2018-09-03 16:04:36,9.44
4,2481,191,2461,2018-05-16 12:36:12,1.75
8,2482,192,2474,2017-12-04 23:54:55,3.1
7,2483,193,3257,2018-01-06 14:18:37,9.97
7,2484,194,2687,2018-07-22 08:06:29,5.84
8,2485,195,2863,2018-08-14 14:56:23,1.35
8,2487,196,2419,2018-09-06 17:05:44,9.44
8,2488,197,1615,2017-10-27 15:37:05,8.51
6,2490,198,1602,2018-09-09 19:47:18,1.9
8,2491,199,3240,2017-12-18 23:17:28,3.44
8,2492,2,1944,2018-04-09 14:18:56,4.05
8,2493,20,1615,2018-05-01 17:05:04,0.07
7,2495,200,3296,2017-10-14 21:19:34,0.31
8,2496,201,2042,2018-03-14 18:16:59,7.72
7,2497,202,2721,2018-01-25 06:08:06,6.35
6,2498,203,2807,2017-11-14 10:05:57,8.11
8,2499,204,2536,2018-08-15 12:15:31,6.83
1,2500,205,2884,2017-12-30 03:40:42,6.46
8,2501,206,1592,2018-01-18 14:32:36,0.14
7,2503,207,2980,2018-01-07 14:04:34,4.32
6,2504,208,1386,2018-06-03 14:10:41,3.97
8,2505,209,1946,2017-10-10 06:27:15,7.21
3,2506,21,3113,2017-11-29 07:54:13,2.17
7,2508,210,1350,2018-08-25 05:19:59,8.87
4,2510,211,3305,2017-09-23 13:36:23,4.47
8,2511,212,2417,2018-06-06 20:02:04,6.61
5,2512,213,2049,2018-02-03 06:37:37,3.32
7,2513,214,2728,2017-11-14 01:04:50,5.09
6,2516,215,2259,2018-04-08 08:24:56,2.56
8,2517,216,2870,2018-04-28 17:44:53,5.63
8,2518,217,3004,2017-12-07 20:32:27,3.33
8,2519,218,1785,2018-02-15 02:00:17,4.63
8,2520,219,3020,2018-01-03 09:47:49,3.25
8,2521,22,1395,2017-12-14 10:37:48,4.53
8,2522,220,2187,2018-02-09 09:41:24,3.92
8,2523,221,2281,2018-07-28 23:41:21,4.94
8,2524,222,1386,2018-02-09 17:22:18,5.22
6,2525,223,2777,2018-05-18 08:47:51,5.28
8,2526,224,3226,2018-03-04 06:49:51,6.54
8,2528,225,1901,2018-01-08 21:52:16,6.16
7,2529,226,1959,2017-10-29 20:11:03,3.74
8,2530,227,2916,2018-05-05 17:43:57,1.47
8,2531,228,3161,2017-12-30 19:40:35,3.62
8,2532,229,2096,2017-11-27 20:41:35,1.0
6,2533,23,2944,2018-02-10 00:56:05,4.22
8,2534,230,2807,2018-03-08 05:27:43,1.43
8,2535,231,2834,2018-05-30 20:02:59,2.18
8,2536,232,2751,2018-06-26 18:11:27,9.14
8,2537,233,1911,2018-08-28 23:06:30,0.88
1,2541,234,3162,2017-09-28 06:43:16,1.66
7,2542,235,2762,2018-03-27 07:25:29,5.71
7,2543,236,2661,2018-07-31 03:25:28,4.06
8,2544,237,2980,2017-11-01 23:42:57,1.64
8,2545,238,2986,2017-10-31 08:20:45,3.98
7,2546,239,3187,2018-08-08 19:43:46,9.39
8,2548,24,2843,2018-04-13 09:18:16,9.86
8,2549,240,3088,2018-08-03 18:44:22,0.19
6,2550,241,2883,2018-09-15 20:23:08,2.56
7,2554,242,3179,2018-07-06 09:49:25,2.3
8,2555,243,3321,2018-08-12 11:02:04,9.19
7,2556,244,2416,2018-06-22 05:21:11,6.41
8,2557,245,2872,2017-11-26 07:53:15,2.0
8,2558,246,2672,2018-06-13 09:07:29,9.54
8,2559,247,2013,2018-06-02 19:29:36,7.8
8,2560,248,2490,2018-06-08 20:47:00,4.35
6,2561,249,2873,2018-03-25 06:46:53,9.74
8,2562,25,2960,2018-03-25 06:49:55,3.73
8,2564,250,2531,2018-05-26 01:04:48,1.23
8,2566,251,3158,2018-07-13 14:54:01,2.46
8,2567,252,2255,2018-07-08 03:36:54,8.33
5,2568,253,1853,2018-08-26 01:56:41,9.04
7,2569,254,1607,2017-12-13 22:22:06,0.41
7,2570,255,1403,2018-02-09 08:19:13,5.96
8,2571,256,2695,2018-01-18 06:42:24,2.6
7,2573,257,2662,2017-10-15 15:55:18,8.26
8,2574,258,1941,2018-08-20 00:45:35,0.71
4,2575,259,2296,2017-12-31 04:14:11,8.55
8,2578,26,1364,2018-02-16 17:53:57,9.62
8,2579,260,3030,2018-07-17 07:30:46,7.45
8,2580,261,2806,2017-11-16 14:49:20,3.53
7,2581,262,3100,2018-09-04 16:27:24,7.41
7,2582,263,3277,2018-04-28 19:47:03,9.31
5,2583,264,3104,2018-06-12 11:44:27,6.31
6,2584,265,3126,2018-05-23 10:38:06,3.38
6,2585,266,3052,2018-06-05 12:14:39,5.3
7,2587,267,2362,2017-12-22 22:52:52,9.33
8,2588,268,2684,2018-05-12 12:24:37,0.32
8,2589,269,1982,2018-08-09 16:47:38,8.01
7,2591,27,2867,2018-01-30 21:40:29,6.18
6,2593,270,2502,2018-01-01 22:44:21,5.94
8,2594,271,2751,2018-04-28 05:03:28,8.17
7,2595,272,2591,2017-12-28 18:38:46,6.19
8,2596,273,2797,2018-01-18 06:44:44,2.97
4,2597,274,2583,2018-03-01 21:37:24,5.75
7,2598,275,2690,2017-11-24 01:19:43,7.55
8,2599,276,2456,2017-10-20 16:59:16,7.24
8,2600,277,2766,2018-06-05 07:26:29,7.84
7,2601,278,2228,2018-08-19 00:14:17,7.68
