idPessoa,idVinculoPessoa,idTertulia,id2Tertulia,aptidaoTertulia
633, 2128,20,2018,1
684, 3112,18,2018,0
411, 1628,15,2018,1
897, 2406,5,2018,0
462, 2009,6,2018,0
245, 2872,11,2018,0
439, 2128,15,2018,0
818, 2707,2,2018,1
548, 2704,14,2018,0
498, 2809,18,2018,0
413, 2802,17,2018,0
5, 2640,4,2018,0
826, 1382,7,2018,0
78, 2042,5,2018,1
962, 1898,15,2018,0
666, 2539,6,2018,1
261, 2806,9,2018,0
617, 2035,14,2018,1
610, 3294,17,2018,0
510, 2088,9,2018,1
340, 2447,3,2018,0
100, 2469,10,2018,1
824, 2606,10,2018,1
143, 2455,17,2018,1
611, 1808,15,2018,1
79, 3061,3,2018,1
110, 1858,6,2018,0
336, 2014,9,2018,0
495, 1395,14,2018,0
810, 3015,10,2018,1
196, 2419,18,2018,0
167, 1941,14,2018,0
23, 2944,11,2018,1
943, 2361,15,2018,1
136, 2402,2,2018,0
859, 1615,6,2018,1
757, 2341,3,2018,0
326, 2684,11,2018,0
390, 3301,7,2018,1
339, 2515,20,2018,1
57, 2846,17,2018,0
248, 2490,5,2018,0
90, 2154,20,2018,1
603, 2945,13,2018,1
167, 1941,4,2018,1
920, 2080,2,2018,1
126, 1956,1,2018,1
405, 3025,7,2018,1
195, 2863,11,2018,0
602, 2917,11,2018,1
175, 1269,7,2018,0
981, 2909,2,2018,1
659, 2947,9,2018,1
178, 3282,19,2018,0
233, 1911,5,2018,0
731, 2541,20,2018,0
629, 1954,17,2018,0
239, 3187,14,2018,1
231, 2834,11,2018,1
825, 3137,19,2018,1
524, 3130,19,2018,1
378, 1627,4,2018,1
352, 1890,7,2018,0
304, 3315,8,2018,1
986, 1467,9,2018,1
126, 1956,4,2018,1
775, 2809,16,2018,0
81, 1925,13,2018,1
297, 1600,20,2018,0
966, 2768,3,2018,0
194, 2687,16,2018,0
894, 2997,19,2018,0
617, 2035,1,2018,1
623, 3263,13,2018,0
702, 2632,1,2018,1
514, 3215,8,2018,0
652, 2501,11,2018,1
217, 3004,1,2018,0
59, 2534,16,2018,1
904, 2153,4,2018,1
458, 2867,9,2018,1
50, 2675,2,2018,1
697, 2804,13,2018,0
321, 2285,9,2018,1
709, 1914,12,2018,1
106, 2690,5,2018,0
7, 2431,12,2018,1
30, 2953,13,2018,1
498, 2809,16,2018,1
211, 3305,4,2018,0
841, 3039,13,2018,1
551, 1289,8,2018,0
738, 2725,16,2018,1
487, 2912,1,2018,0
744, 2806,12,2018,0
862, 1919,5,2018,1
754, 1868,18,2018,1
362, 3316,18,2018,0
766, 3278,16,2018,1
337, 1392,18,2018,1
455, 2940,14,2018,1
889, 1884,1,2018,0
945, 1246,14,2018,1
757, 2341,20,2018,1
549, 2258,5,2018,1
413, 2802,15,2018,1
33, 2227,11,2018,1
680, 2772,5,2018,1
906, 1472,19,2018,0
40, 2823,19,2018,0
670, 3078,12,2018,0
601, 1788,2,2018,0
167, 1941,16,2018,1
99, 2682,19,2018,0
85, 2107,6,2018,1
153, 2852,17,2018,0
160, 1892,6,2018,1
102, 2553,3,2018,0
123, 2128,12,2018,0
708, 2775,12,2018,1
844, 1982,1,2018,1
995, 2432,6,2018,1
841, 3039,4,2018,0
870, 2812,6,2018,0
446, 2815,6,2018,1
902, 1600,19,2018,1
791, 3006,3,2018,0
240, 3088,19,2018,0
786, 1778,6,2018,0
633, 2128,17,2018,0
921, 2154,1,2018,1
254, 1607,18,2018,0
246, 2672,14,2018,0
65, 3205,12,2018,0
620, 3306,14,2018,1
661, 3110,5,2018,0
785, 3178,20,2018,0
676, 2572,4,2018,0
208, 1386,15,2018,0
540, 3093,1,2018,1
709, 1914,20,2018,0
107, 2995,19,2018,0
867, 1632,2,2018,0
480, 2781,2,2018,1
712, 1793,6,2018,1
278, 2228,7,2018,0
202, 2721,17,2018,1
607, 1360,14,2018,1
12, 2770,20,2018,0
401, 1335,3,2018,0
713, 1795,20,2018,0
814, 2660,10,2018,1
68, 2820,19,2018,0
235, 2762,2,2018,1
333, 3024,2,2018,1
885, 2862,5,2018,1
425, 2694,4,2018,1
119, 2802,20,2018,1
437, 2938,3,2018,1
950, 2296,19,2018,1
594, 2465,1,2018,0
266, 3052,15,2018,0
7, 2431,9,2018,0
549, 2258,2,2018,0
117, 2977,16,2018,0
157, 2739,3,2018,0
967, 3027,13,2018,1
700, 2496,12,2018,1
575, 2819,12,2018,1
885, 2862,16,2018,1
690, 2872,5,2018,1
996, 2768,9,2018,0
886, 2665,2,2018,1
614, 2915,5,2018,1
717, 2496,20,2018,1
89, 2572,11,2018,0
188, 2176,13,2018,0
792, 2537,15,2018,0
943, 2361,11,2018,0
91, 3131,14,2018,1
451, 2280,9,2018,1
190, 1590,8,2018,0
30, 2953,5,2018,0
868, 2574,2,2018,1
537, 2014,7,2018,0
782, 2011,20,2018,1
895, 1957,7,2018,1
685, 2969,18,2018,1
921, 2154,11,2018,0
596, 1794,14,2018,1
510, 2088,10,2018,0
10, 2129,4,2018,1
514, 3215,20,2018,0
619, 2634,15,2018,1
740, 2356,13,2018,1
73, 1631,12,2018,1
741, 1955,13,2018,0
323, 1957,11,2018,1
922, 2709,8,2018,0
156, 1971,7,2018,1
316, 3302,20,2018,0
519, 3122,17,2018,0
373, 3319,13,2018,0
395, 1359,15,2018,0
648, 2664,3,2018,0
324, 1910,18,2018,1
419, 1939,5,2018,1
207, 2980,18,2018,1
185, 3025,13,2018,0
496, 1863,7,2018,0
859, 1615,7,2018,0
418, 2337,8,2018,0
94, 2241,15,2018,0
81, 1925,15,2018,0
822, 2134,7,2018,1
649, 3288,1,2018,1
905, 3308,12,2018,0
31, 2789,4,2018,0
905, 3308,18,2018,0
348, 2519,4,2018,1
686, 2733,6,2018,1
136, 2402,5,2018,1
371, 3085,1,2018,1
941, 1279,11,2018,0
976, 2558,2,2018,0
834, 2664,5,2018,0
366, 3218,20,2018,0
901, 2114,4,2018,1
96, 3301,17,2018,0
663, 3063,3,2018,1
425, 2694,16,2018,0
315, 3317,1,2018,0
745, 1853,16,2018,1
127, 2677,12,2018,1
912, 2303,2,2018,1
432, 2734,17,2018,0
56, 1631,1,2018,0
618, 2739,11,2018,1
682, 2909,10,2018,1
415, 1472,15,2018,1
357, 1588,4,2018,1
304, 3315,3,2018,1
289, 2858,5,2018,1
904, 2153,17,2018,1
386, 2758,12,2018,0
286, 2545,20,2018,1
871, 2591,9,2018,1
110, 1858,16,2018,0
813, 1274,12,2018,1
305, 2555,5,2018,0
94, 2241,9,2018,0
618, 2739,18,2018,1
591, 1792,11,2018,0
175, 1269,18,2018,0
782, 2011,10,2018,1
589, 1467,8,2018,0
498, 2809,18,2018,0
936, 1433,1,2018,1
808, 3189,17,2018,1
522, 2449,13,2018,0
888, 2952,5,2018,0
74, 3058,9,2018,1
899, 2406,10,2018,0
323, 1957,5,2018,1
326, 2684,13,2018,1
908, 3063,14,2018,1
429, 1788,2,2018,1
774, 2506,4,2018,1
630, 2973,6,2018,0
481, 2660,1,2018,0
893, 1470,6,2018,0
892, 1865,19,2018,0
606, 2253,8,2018,0
784, 2192,19,2018,1
124, 2135,2,2018,0
96, 3301,8,2018,1
365, 2706,11,2018,0
841, 3039,20,2018,0
439, 2128,10,2018,0
820, 3287,16,2018,1
487, 2912,1,2018,0
99, 2682,18,2018,0
822, 2134,16,2018,1
144, 2818,18,2018,0
942, 2905,8,2018,0
354, 3217,2,2018,0
815, 2411,2,2018,1
320, 1633,10,2018,0
706, 2370,14,2018,0
974, 3213,18,2018,1
367, 1430,9,2018,1
23, 2944,18,2018,1
755, 1882,3,2018,0
752, 1945,18,2018,0
597, 2798,13,2018,0
323, 1957,20,2018,0
456, 2564,10,2018,1
72, 1919,17,2018,1
152, 2957,16,2018,1
264, 3104,9,2018,0
684, 3112,16,2018,1
414, 2083,11,2018,1
445, 2461,1,2018,0
806, 2796,4,2018,0
399, 2464,18,2018,0
136, 2402,15,2018,0
382, 2769,2,2018,0
76, 3290,17,2018,0
961, 1624,17,2018,1
88, 2673,9,2018,1
288, 2568,8,2018,1
406, 3319,10,2018,1
548, 2704,16,2018,0
343, 2789,4,2018,1
332, 2228,7,2018,1
914, 1475,7,2018,0
728, 3022,9,2018,1
633, 2128,13,2018,0
562, 1419,6,2018,0
858, 2959,13,2018,0
495, 1395,6,2018,0
565, 2743,15,2018,0
135, 2612,10,2018,1
7, 2431,9,2018,1
879, 3062,14,2018,1
441, 2083,18,2018,0
438, 1783,19,2018,0
101, 2696,5,2018,0
644, 2848,12,2018,0
780, 1874,19,2018,1
315, 3317,10,2018,1
388, 2788,19,2018,0
92, 3193,11,2018,1
586, 2153,2,2018,0
947, 2978,14,2018,0
471, 1873,3,2018,0
297, 1600,10,2018,1
429, 1788,6,2018,0
729, 3215,10,2018,1
467, 2506,18,2018,0
518, 1612,20,2018,0
948, 2840,2,2018,1
772, 1899,1,2018,0
188, 2176,5,2018,1
582, 2636,6,2018,1
357, 1588,17,2018,1
750, 3148,20,2018,1
772, 1899,14,2018,1
432, 2734,14,2018,0
54, 3042,15,2018,0
601, 1788,9,2018,0
309, 2744,15,2018,0
329, 1959,2,2018,0
651, 3062,9,2018,0
130, 1806,7,2018,0
656, 1778,6,2018,0
99, 2682,16,2018,0
160, 1892,7,2018,1
412, 1401,12,2018,1
349, 2265,15,2018,0
410, 2845,7,2018,1
57, 2846,10,2018,0
733, 3155,7,2018,0
18, 3047,3,2018,1
760, 2915,18,2018,1
782, 2011,2,2018,0
786, 1778,19,2018,0
639, 1342,12,2018,1
754, 1868,7,2018,1
616, 3259,8,2018,1
437, 2938,10,2018,0
489, 2486,3,2018,0
931, 1366,14,2018,0
591, 1792,3,2018,1
54, 3042,15,2018,0
652, 2501,18,2018,1
388, 2788,19,2018,1
861, 2370,9,2018,1
861, 2370,1,2018,1
635, 3011,12,2018,1
455, 2940,6,2018,1
70, 2092,5,2018,1
804, 3123,14,2018,1
14, 2779,7,2018,0
698, 2820,10,2018,1
133, 3150,18,2018,0
315, 3317,18,2018,1
671, 3052,17,2018,0
710, 3237,14,2018,1
139, 2579,5,2018,1
568, 2959,16,2018,1
916, 1790,7,2018,0
271, 2751,6,2018,0
595, 3172,19,2018,1
997, 3181,8,2018,1
905, 3308,16,2018,1
400, 2283,13,2018,1
815, 2411,4,2018,0
63, 3072,13,2018,1
606, 2253,11,2018,1
508, 2531,8,2018,1
387, 2960,18,2018,0
936, 1433,10,2018,1
882, 2867,20,2018,1
877, 1583,15,2018,0
108, 3118,17,2018,1
60, 1815,11,2018,1
612, 2515,3,2018,0
6, 2872,17,2018,0
851, 1941,11,2018,1
810, 3015,12,2018,0
9, 1797,5,2018,1
524, 3130,15,2018,0
776, 3254,1,2018,1
877, 1583,20,2018,0
598, 3201,8,2018,0
73, 1631,19,2018,0
387, 2960,17,2018,1
13, 2454,2,2018,1
799, 3087,20,2018,0
58, 2289,6,2018,1
73, 1631,14,2018,0
377, 3087,17,2018,1
150, 1972,11,2018,0
37, 2768,16,2018,1
359, 3171,20,2018,1
34, 1629,3,2018,0
29, 1919,6,2018,0
604, 2805,3,2018,1
476, 3139,12,2018,0
514, 3215,7,2018,0
690, 2872,3,2018,1
861, 2370,20,2018,0
813, 1274,10,2018,1
644, 2848,19,2018,0
919, 2999,13,2018,1
920, 2080,7,2018,0
465, 2209,3,2018,1
433, 2360,19,2018,1
442, 1374,18,2018,0
39, 2852,14,2018,0
888, 2952,12,2018,1
535, 2127,17,2018,0
837, 2356,4,2018,0
763, 3192,12,2018,0
382, 2769,6,2018,0
142, 1575,1,2018,0
392, 3054,11,2018,0
755, 1882,3,2018,1
435, 2825,15,2018,0
890, 2014,4,2018,1
539, 3209,12,2018,0
634, 2906,5,2018,1
288, 2568,2,2018,1
639, 1342,7,2018,0
597, 2798,4,2018,1
967, 3027,18,2018,1
479, 2430,1,2018,0
663, 3063,13,2018,1
593, 2361,11,2018,1
888, 2952,13,2018,0
223, 2777,17,2018,1
775, 2809,11,2018,1
188, 2176,3,2018,0
679, 2882,18,2018,1
539, 3209,16,2018,1
121, 3160,3,2018,1
843, 1426,9,2018,0
889, 1884,16,2018,1
725, 3227,17,2018,1
943, 2361,18,2018,1
63, 3072,6,2018,1
922, 2709,14,2018,0
426, 2081,18,2018,0
954, 2870,16,2018,0
390, 3301,9,2018,1
660, 1422,18,2018,0
38, 2987,6,2018,0
202, 2721,18,2018,0
122, 2242,7,2018,1
658, 1619,8,2018,1
732, 3153,16,2018,0
737, 2690,20,2018,0
244, 2416,9,2018,1
157, 2739,13,2018,0
538, 1412,17,2018,1
541, 2088,17,2018,0
844, 1982,13,2018,0
649, 3288,2,2018,1
654, 2490,18,2018,0
468, 2049,15,2018,1
440, 1398,13,2018,1
557, 1819,19,2018,1
379, 2932,13,2018,1
358, 3132,13,2018,1
788, 2878,18,2018,0
55, 2397,5,2018,1
443, 3001,16,2018,1
318, 2290,10,2018,0
440, 1398,17,2018,0
466, 1891,3,2018,0
85, 2107,1,2018,1
399, 2464,9,2018,0
434, 2965,7,2018,0
533, 3275,1,2018,1
712, 1793,13,2018,1
451, 2280,19,2018,1
638, 2800,19,2018,1
8, 1387,4,2018,1
968, 1972,6,2018,1
621, 2798,7,2018,0
469, 1974,8,2018,0
487, 2912,18,2018,0
572, 2009,18,2018,1
919, 2999,15,2018,0
996, 2768,19,2018,1
827, 2939,3,2018,1
270, 2502,17,2018,1
637, 2384,13,2018,0
682, 2909,13,2018,1
942, 2905,14,2018,0
995, 2432,10,2018,0
925, 2556,4,2018,0
774, 2506,2,2018,0
231, 2834,9,2018,1
673, 1387,4,2018,0
59, 2534,8,2018,1
709, 1914,2,2018,1
433, 2360,17,2018,1
159, 2499,9,2018,0
601, 1788,19,2018,1
951, 2837,3,2018,1
246, 2672,13,2018,1
500, 2386,18,2018,1
402, 2874,3,2018,0
631, 2841,18,2018,0
938, 2821,17,2018,1
280, 2520,5,2018,0
411, 1628,17,2018,0
138, 2338,17,2018,1
931, 1366,9,2018,0
205, 2884,7,2018,0
440, 1398,6,2018,0
320, 1633,19,2018,1
174, 2425,10,2018,1
855, 2205,6,2018,1
458, 2867,16,2018,1
728, 3022,10,2018,1
599, 1330,10,2018,0
749, 1813,14,2018,1
707, 2136,5,2018,1
945, 1246,11,2018,0
965, 2995,12,2018,0
897, 2406,13,2018,1
986, 1467,1,2018,1
649, 3288,2,2018,1
192, 2474,20,2018,1
241, 2883,4,2018,1
32, 2343,6,2018,0
658, 1619,18,2018,1
434, 2965,12,2018,0
261, 2806,3,2018,0
654, 2490,17,2018,0
879, 3062,7,2018,1
511, 2896,16,2018,0
602, 2917,3,2018,0
644, 2848,10,2018,0
503, 2105,15,2018,0
484, 1941,1,2018,1
803, 3153,17,2018,0
118, 2958,20,2018,1
31, 2789,7,2018,0
644, 2848,10,2018,1
875, 2684,6,2018,0
794, 2994,16,2018,0
850, 3172,6,2018,0
295, 2282,20,2018,1
558, 3146,7,2018,0
403, 3232,11,2018,0
407, 605,9,2018,0
250, 2531,18,2018,1
153, 2852,2,2018,0
238, 2986,16,2018,0
963, 2904,13,2018,0
33, 2227,3,2018,0
273, 2797,13,2018,0
353, 2939,1,2018,1
290, 3102,17,2018,0
492, 2750,18,2018,1
252, 2255,5,2018,0
490, 2976,12,2018,1
280, 2520,5,2018,1
636, 2808,16,2018,1
297, 1600,11,2018,0
75, 3228,16,2018,0
259, 2296,6,2018,0
187, 2993,5,2018,1
160, 1892,12,2018,0
627, 3106,3,2018,1
117, 2977,8,2018,1
871, 2591,4,2018,0
239, 3187,1,2018,1
618, 2739,8,2018,0
32, 2343,2,2018,0
427, 2478,5,2018,1
172, 2365,2,2018,1
109, 3154,3,2018,1
260, 3030,8,2018,1
299, 2044,11,2018,0
673, 1387,7,2018,0
770, 1878,17,2018,0
360, 3107,17,2018,1
415, 1472,18,2018,1
611, 1808,15,2018,0
547, 2097,16,2018,1
70, 2092,17,2018,0
552, 2642,13,2018,1
256, 2695,11,2018,1
369, 2822,13,2018,0
137, 2709,8,2018,1
211, 3305,7,2018,0
223, 2777,10,2018,0
100, 2469,14,2018,1
930, 2088,16,2018,0
253, 1853,4,2018,0
190, 1590,7,2018,1
703, 2195,7,2018,1
39, 2852,5,2018,0
593, 2361,18,2018,1
13, 2454,15,2018,1
873, 2435,14,2018,1
895, 1957,8,2018,1
251, 3158,19,2018,0
701, 1402,11,2018,0
23, 2944,17,2018,1
380, 3197,14,2018,0
407, 605,11,2018,0
753, 2242,19,2018,0
655, 2228,9,2018,1
988, 2474,18,2018,1
106, 2690,1,2018,1
477, 1959,12,2018,1
973, 1242,3,2018,1
624, 2096,5,2018,1
1, 3121,1,2018,0
915, 1387,16,2018,0
794, 2994,15,2018,1
658, 1619,9,2018,0
828, 2685,18,2018,1
18, 3047,9,2018,1
115, 2308,12,2018,1
200, 3296,10,2018,0
959, 2259,5,2018,1
484, 1941,19,2018,0
707, 2136,12,2018,0
802, 2761,18,2018,0
63, 3072,12,2018,0
538, 1412,9,2018,0
924, 1422,10,2018,0
673, 1387,10,2018,0
477, 1959,7,2018,1
991, 2709,10,2018,0
245, 2872,12,2018,1
751, 1903,14,2018,1
152, 2957,3,2018,0
387, 2960,3,2018,1
65, 3205,14,2018,0
641, 3315,19,2018,0
520, 3069,15,2018,1
195, 2863,4,2018,0
420, 2643,20,2018,0
902, 1600,3,2018,0
566, 2985,10,2018,0
811, 2877,12,2018,1
860, 2806,10,2018,0
936, 1433,5,2018,1
310, 3026,10,2018,1
834, 2664,5,2018,0
45, 1349,3,2018,1
849, 1369,4,2018,0
323, 1957,19,2018,1
374, 2979,15,2018,0
670, 3078,9,2018,0
636, 2808,13,2018,1
847, 2212,19,2018,0
12, 2770,11,2018,0
934, 1887,5,2018,1
450, 3249,19,2018,0
784, 2192,13,2018,1
350, 2175,5,2018,1
216, 2870,12,2018,0
100, 2469,16,2018,1
329, 1959,7,2018,0
236, 2661,15,2018,1
520, 3069,8,2018,1
377, 3087,18,2018,0
358, 3132,14,2018,0
632, 3082,18,2018,0
435, 2825,12,2018,0
281, 2749,14,2018,0
131, 2605,18,2018,1
394, 2140,9,2018,1
125, 2684,20,2018,0
659, 2947,19,2018,0
617, 2035,9,2018,0
100, 2469,7,2018,1
98, 3082,7,2018,1
916, 1790,18,2018,1
628, 2950,17,2018,1
380, 3197,10,2018,0
942, 2905,5,2018,0
542, 1425,13,2018,1
697, 2804,8,2018,0
303, 2934,3,2018,1
923, 2719,7,2018,1
715, 2462,18,2018,0
715, 2462,5,2018,0
109, 3154,14,2018,1
236, 2661,12,2018,1
878, 1898,5,2018,1
793, 3031,17,2018,1
852, 2517,4,2018,0
159, 2499,9,2018,0
563, 2576,20,2018,1
71, 1279,12,2018,0
920, 2080,5,2018,0
368, 3230,8,2018,0
246, 2672,3,2018,0
396, 2439,14,2018,1
732, 3153,3,2018,1
542, 1425,13,2018,0
71, 1279,8,2018,1
423, 2768,9,2018,0
173, 2912,12,2018,0
430, 2562,20,2018,0
175, 1269,14,2018,1
194, 2687,4,2018,1
391, 2555,8,2018,0
6, 2872,10,2018,0
77, 3076,4,2018,0
518, 1612,11,2018,1
27, 2867,16,2018,0
665, 3146,4,2018,0
459, 2821,1,2018,1
726, 3194,7,2018,1
722, 1863,8,2018,1
128, 1271,10,2018,0
331, 2624,16,2018,1
672, 1945,12,2018,0
722, 1863,6,2018,0
970, 1821,14,2018,0
176, 3048,12,2018,1
596, 1794,18,2018,0
488, 2088,9,2018,0
690, 2872,7,2018,1
253, 1853,16,2018,0
550, 2579,13,2018,1
261, 2806,10,2018,1
555, 2755,11,2018,0
639, 1342,6,2018,1
656, 1778,5,2018,0
452, 2542,10,2018,1
693, 2423,8,2018,0
946, 2808,8,2018,0
813, 1274,13,2018,1
9, 1797,18,2018,1
723, 2679,19,2018,1
609, 1386,12,2018,0
236, 2661,1,2018,0
212, 2417,5,2018,0
914, 1475,4,2018,1
408, 1436,1,2018,1
384, 1917,7,2018,0
920, 2080,14,2018,1
178, 3282,6,2018,0
250, 2531,15,2018,0
362, 3316,11,2018,0
857, 2008,5,2018,1
173, 2912,11,2018,0
399, 2464,20,2018,1
166, 3306,10,2018,0
525, 3216,1,2018,0
438, 1783,5,2018,0
691, 1856,13,2018,0
225, 1901,18,2018,1
44, 2501,10,2018,1
486, 2014,7,2018,0
361, 3053,9,2018,0
865, 2689,18,2018,1
723, 2679,3,2018,0
52, 2593,10,2018,1
782, 2011,13,2018,1
410, 2845,17,2018,0
519, 3122,15,2018,0
972, 2541,20,2018,0
375, 2705,3,2018,0
591, 1792,8,2018,0
430, 2562,16,2018,1
470, 1952,11,2018,0
344, 3225,8,2018,0
845, 1794,14,2018,0
340, 2447,16,2018,1
541, 2088,10,2018,1
855, 2205,19,2018,0
626, 1799,19,2018,0
360, 3107,17,2018,0
641, 3315,19,2018,1
524, 3130,11,2018,1
749, 1813,12,2018,1
89, 2572,11,2018,0
449, 3303,15,2018,0
68, 2820,10,2018,1
576, 3193,1,2018,0
306, 1619,14,2018,0
806, 2796,8,2018,0
692, 2727,4,2018,1
814, 2660,7,2018,1
540, 3093,10,2018,0
934, 1887,13,2018,0
635, 3011,13,2018,1
974, 3213,7,2018,1
570, 3045,7,2018,1
842, 3188,6,2018,1
259, 2296,18,2018,0
216, 2870,4,2018,0
535, 2127,14,2018,0
404, 2658,11,2018,1
870, 2812,15,2018,0
865, 2689,17,2018,1
280, 2520,14,2018,0
949, 1432,18,2018,1
165, 1274,7,2018,0
956, 3209,12,2018,0
252, 2255,18,2018,0
485, 2597,4,2018,0
596, 1794,16,2018,0
212, 2417,19,2018,0
407, 605,20,2018,0
209, 1946,14,2018,0
64, 2438,9,2018,0
868, 2574,11,2018,1
901, 2114,12,2018,0
104, 2996,7,2018,1
43, 2882,19,2018,0
836, 1433,6,2018,1
856, 2891,13,2018,0
676, 2572,1,2018,1
100, 2469,2,2018,0
158, 2975,13,2018,1
72, 1919,14,2018,1
618, 2739,1,2018,0
581, 2995,10,2018,0
641, 3315,2,2018,1
47, 2570,1,2018,0
358, 3132,2,2018,0
472, 2804,11,2018,1
684, 3112,4,2018,1
164, 2560,4,2018,0
256, 2695,4,2018,0
722, 1863,12,2018,1
798, 2751,11,2018,1
386, 2758,11,2018,1
338, 2912,18,2018,0
281, 2749,9,2018,1
393, 3140,9,2018,1
289, 2858,12,2018,1
635, 3011,12,2018,1
472, 2804,15,2018,0
950, 2296,4,2018,1
273, 2797,20,2018,0
41, 2755,4,2018,1
358, 3132,5,2018,1
592, 3243,15,2018,0
121, 3160,15,2018,0
465, 2209,13,2018,0
778, 2874,11,2018,0
623, 3263,4,2018,1
981, 2909,15,2018,1
242, 3179,7,2018,0
74, 3058,9,2018,1
918, 1919,17,2018,0
372, 2675,19,2018,0
795, 2841,6,2018,1
981, 2909,12,2018,1
902, 1600,12,2018,1
194, 2687,4,2018,1
964, 2285,9,2018,1
324, 1910,2,2018,1
389, 3106,3,2018,1
253, 1853,1,2018,0
813, 1274,2,2018,1
472, 2804,18,2018,1
413, 2802,15,2018,0
202, 2721,13,2018,0
2, 1944,20,2018,0
819, 2304,8,2018,1
58, 2289,16,2018,0
408, 1436,17,2018,1
547, 2097,17,2018,1
91, 3131,13,2018,1
670, 3078,14,2018,1
421, 3279,13,2018,1
370, 3263,18,2018,0
662, 1385,8,2018,0
588, 2448,16,2018,1
264, 3104,7,2018,0
651, 3062,9,2018,0
83, 1328,17,2018,0
874, 2298,19,2018,0
904, 2153,1,2018,1
626, 1799,11,2018,0
278, 2228,20,2018,0
533, 3275,7,2018,1
491, 2483,6,2018,0
118, 2958,9,2018,1
187, 2993,15,2018,0
323, 1957,11,2018,0
733, 3155,14,2018,1
721, 1426,6,2018,1
204, 2536,5,2018,0
838, 2225,18,2018,0
369, 2822,6,2018,1
198, 1602,4,2018,1
234, 3162,13,2018,1
14, 2779,5,2018,1
619, 2634,3,2018,0
933, 2370,8,2018,0
815, 2411,11,2018,1
552, 2642,20,2018,0
912, 2303,14,2018,1
759, 1589,11,2018,1
333, 3024,1,2018,0
917, 2707,17,2018,1
850, 3172,20,2018,0
673, 1387,4,2018,0
76, 3290,16,2018,0
187, 2993,12,2018,1
407, 605,13,2018,1
20, 1615,1,2018,1
727, 2805,4,2018,1
501, 3154,2,2018,1
1000, 2804,19,2018,0
430, 2562,8,2018,1
999, 2088,17,2018,1
404, 2658,12,2018,0
102, 2553,19,2018,1
273, 2797,6,2018,1
567, 1351,19,2018,0
946, 2808,4,2018,0
226, 1959,6,2018,0
386, 2758,15,2018,1
540, 3093,4,2018,1
432, 2734,5,2018,1
765, 2619,13,2018,0
418, 2337,4,2018,0
867, 1632,13,2018,0
610, 3294,9,2018,0
236, 2661,15,2018,0
987, 2728,9,2018,1
566, 2985,13,2018,1
522, 2449,1,2018,0
45, 1349,5,2018,0
289, 2858,5,2018,0
826, 1382,11,2018,0
448, 2017,10,2018,1
691, 1856,20,2018,0
198, 1602,9,2018,0
396, 2439,15,2018,1
162, 3243,7,2018,1
790, 3073,16,2018,0
274, 2583,11,2018,1
569, 3012,9,2018,0
517, 1409,12,2018,1
172, 2365,13,2018,1
336, 2014,10,2018,0
786, 1778,14,2018,0
96, 3301,13,2018,0
27, 2867,4,2018,0
906, 1472,18,2018,1
981, 2909,1,2018,0
103, 2692,20,2018,0
77, 3076,6,2018,0
40, 2823,5,2018,0
846, 1853,15,2018,1
168, 1408,7,2018,1
376, 1788,15,2018,1
487, 2912,10,2018,1
9, 1797,1,2018,0
351, 2117,7,2018,1
916, 1790,2,2018,1
119, 2802,5,2018,1
823, 2810,18,2018,1
398, 1419,20,2018,1
780, 1874,17,2018,0
350, 2175,2,2018,1
336, 2014,11,2018,0
20, 1615,5,2018,0
57, 2846,1,2018,1
626, 1799,6,2018,1
114, 1853,11,2018,0
